{
    "/js/app.js": "/js/app.js",
    "/js/app-plugins.js": "/js/app-plugins.js",
    "/plugins/codemirror.min.css": "/plugins/codemirror.min.css",
    "/plugins/codemirror.min.js": "/plugins/codemirror.min.js",
    "/plugins/xml.min.js": "/plugins/xml.min.js",
    "/plugins/froala_editor_2.8.1": "/plugins/froala_editor_2.8.1"
}